aiohttp==3.9.3
aiolimiter==1.1.0
aiosignal==1.3.1
anyio==4.2.0
attrs==23.2.0
cachetools==5.3.2
certifi==2024.2.2
cffi==1.16.0
charset-normalizer==3.3.2
docopt==0.6.2
frozenlist==1.4.1
google-auth==2.27.0
google-auth-oauthlib==1.2.0
gspread==5.11.2
h11==0.14.0
h2==4.1.0
hpack==4.0.0
httpcore==1.0.2
httplib2==0.22.0
httpx==0.26.0
hyperframe==6.0.1
idna==3.6
multidict==6.0.5
numpy==1.24.4
oauth2client==4.1.3
oauthlib==3.2.2
pandas==2.2.0
pipreqs==0.4.13
pyasn1==0.5.1
pyasn1-modules==0.3.0
pycparser==2.21
pyparsing==3.1.1
pyperclip==1.8.2
python-dateutil==2.8.2
python-telegram-bot==20.8
pytz==2024.1
requests==2.31.0
requests-oauthlib==1.3.1
rsa==4.9
six==1.16.0
sniffio==1.3.0
socksio==1.0.0
StrEnum==0.4.15
telegram==0.0.1
telepot==12.7
tornado==6.4
tzdata==2023.4
tzlocal==5.2
urllib3==2.2.0
vboxapi==1.0
yarg==0.1.9
yarl==1.9.4
matplotlib==3.8.2
google-api-python-client==2.111.0
APScheduler==3.10.4
emoji==2.8.0
SQLAlchemy==2.0.21
